{
  "images" : [
    {
      "idiom" : "universal",
      "filename" : "f6ca24d9-8f9d-465e-bc5d-9961e637e9b4.jpg",
      "scale" : "1x"
    },
    {
      "idiom" : "universal",
      "scale" : "2x"
    },
    {
      "idiom" : "universal",
      "scale" : "3x"
    }
  ],
  "info" : {
    "version" : 1,
    "author" : "xcode"
  }
}